Compiler version: 18.01.10.1424 GPL Edition - win64
Type: Quick_melt
batch mode: False
new session: True
<<<<<<< HEAD
starting date: 06/05/2018 3:07:53.882 PM
=======
starting date: 06/13/2018 1:05:23.531 PM
>>>>>>> d82436d3fc0d8a3bb9154c81426bd9282bad9d57
